%YAML 1.1
%TAG !u! tag:unity3d.com,2011:
--- !u!114 &11400000
MonoBehaviour:
  m_ObjectHideFlags: 0
  m_CorrespondingSourceObject: {fileID: 0}
  m_PrefabInstance: {fileID: 0}
  m_PrefabAsset: {fileID: 0}
  m_GameObject: {fileID: 0}
  m_Enabled: 1
  m_EditorHideFlags: 0
  m_Script: {fileID: 11500000, guid: 9a8a07a8c3ea7a44e9ba4c15bdb4cd70, type: 3}
  m_Name: ItemSO_starBlack
  m_EditorClassIdentifier: Assembly-CSharp::IineSO
  sprite: {fileID: 21300000, guid: 824598db4c2051049accf17e1663586a, type: 3}
  tag: item_star
  layer: items
  function: 3
